{
  "users": {
    "0xndo2XuqrWsHfI6EGPAbPELgTj2": {
      "tasks": {
        "1": {
          "weight": 1,
          "text": "Сходить в магазин",
          "state": "todo",
          "subtasks": {
            "0xndo2XuqrWsHfI6EGPAbPELgTj2": {
              "text": "Сходить в магазин",
              "state": "todo"
            }
          },
          "tags": {
            "MLc7pwWLVtRaxw8tuKk": {
              "name": "купить в москве"
            }
          }
        }
      },
      "tags": {
        "MLc7pwWLVtRaxw8tuKk": {
          "name": "купить в москве"
        }
      }
    }
  }
}